<?xml version="1.0" encoding="utf-8"?>
<!-- Generator: Adobe Illustrator 24.3.0, SVG Export Plug-In . SVG Version: 6.00 Build 0)  -->
<svg version="1.1" id="Laag_1" xmlns="http://www.w3.org/2000/svg" xmlns:xlink="http://www.w3.org/1999/xlink" x="0px" y="0px"
	 viewBox="0 0 278.1 169.3" style="enable-background:new 0 0 278.1 169.3;" xml:space="preserve">
<style type="text/css">
	.st0{fill:#0C2A4F;}
	.st1{fill:#FFD700;}
</style>
<g id="Group_101" transform="translate(-14.787 -14.358)">
	<path id="Path_82" class="st0" d="M193.9,139.6c-6.8-8-17.3-20.1-37.1-20.1s-30.2,12.1-37,20.1c-6,7-7.8,8.6-12.1,8.6
		s-7.7-1.9-12-8.6l-21.2-35.9h35.8c-2.8-2-5.4-4.3-7.9-6.8c-7.1-7.3-11.4-16.7-12.5-26.8H14.8l55.9,90.7c5.2,7.6,17,20.1,36.8,20.1
		s30.1-12.1,37-20.1c6-7,7.8-8.6,12.1-8.6s6.4,1.6,12.4,8.6c5.7,6.7,13.5,16.3,28.4,19.2v-36.9C196.1,142.1,194.9,140.9,193.9,139.6
		z"/>
	<g id="Group_47" transform="translate(96.054 14.358)">
		<path id="Path_83" class="st1" d="M42.1,96.2c3,1.2,5.7,2.3,8,3.4c3.4-0.7,6.9-1.1,10.4-1.1c21,0,32.8,11.9,40.1,20.3
			c0-1,0.1-1.9,0.1-2.9c0-26.3-13.7-37.1-38-46.7C44.3,61.9,35,58.2,35,46.7c0-9.8,5.6-16.3,15.6-16.3c9.1,0,14.3,5.4,17.2,14.3
			l31.5-10.4C91.4,11.1,75.6,0,50.8,0C16.7,0,0,20.2,0,48.6C0,73.6,15.4,86,42.1,96.2z"/>
	</g>
	<g id="Group_48" transform="translate(204.797 143.071)">
		<path id="Path_84" class="st0" d="M5.5,14.5L0,0h4.2l3.6,10.5L11.4,0h4.2l-5.5,14.5L5.5,14.5z"/>
		<path id="Path_85" class="st0" d="M16,9.2c-0.1-3,2.3-5.4,5.3-5.5c0.1,0,0.2,0,0.3,0c3.1,0,5.4,2.3,5.4,5.9v0.8h-7.5
			c0.4,1.1,1.5,1.9,2.6,1.7c0.9,0,1.8-0.3,2.6-0.9l1.5,2.2c-1.3,1-2.8,1.4-4.4,1.4c-3,0.2-5.5-2-5.7-5C15.9,9.6,15.9,9.4,16,9.2z
			 M21.5,6.4c-1-0.1-2,0.6-2.2,1.6h4.3C23.6,7.3,23.1,6.4,21.5,6.4z"/>
		<path id="Path_86" class="st0" d="M28.6,14.5V4h3.4v1.3c0.8-1,2-1.5,3.3-1.6v3.2c-0.3-0.1-0.5-0.1-0.8-0.1c-0.9,0-1.8,0.3-2.5,1
			v6.7L28.6,14.5z"/>
		<path id="Path_87" class="st0" d="M36.7,14.5V0h3.4v5.2c0.7-1,1.9-1.5,3.1-1.5c2.6,0,4.6,2.1,4.6,5.5c0,3.6-2,5.5-4.6,5.5
			c-1.2,0-2.3-0.5-3.1-1.5v1.2L36.7,14.5z M42.1,11.8c1.4-0.1,2.5-1.4,2.3-2.8c-0.1-1.2-1.1-2.2-2.3-2.3c-0.8,0-1.5,0.4-2,1v3.2
			C40.6,11.5,41.3,11.8,42.1,11.8L42.1,11.8z"/>
		<path id="Path_88" class="st0" d="M48.9,9.2c-0.1-3,2.3-5.4,5.3-5.5c0.1,0,0.2,0,0.3,0c3.1,0,5.4,2.3,5.4,5.9v0.8h-7.5
			c0.4,1.1,1.5,1.9,2.6,1.7c0.9,0,1.8-0.3,2.6-0.9l1.5,2.2c-1.3,1-2.8,1.4-4.4,1.4c-3,0.2-5.5-2-5.7-5C48.9,9.6,48.9,9.4,48.9,9.2z
			 M54.5,6.4c-1-0.1-2,0.6-2.2,1.6h4.3C56.6,7.3,56,6.4,54.5,6.4z"/>
		<path id="Path_89" class="st0" d="M68.2,14.5l-2.3-3.7l-1,1.2v2.5h-3.4V0h3.4v8.2L68.1,4h4l-3.9,4.8l4.1,5.7L68.2,14.5z"/>
		<path id="Path_90" class="st0" d="M72.7,9.2c-0.1-3,2.3-5.4,5.3-5.5c0.1,0,0.2,0,0.3,0c3.1,0,5.4,2.3,5.4,5.9v0.8h-7.5
			c0.4,1.1,1.5,1.9,2.6,1.7c0.9,0,1.8-0.3,2.6-0.9l1.5,2.2c-1.3,1-2.8,1.4-4.4,1.4c-3,0.2-5.5-2-5.7-5C72.7,9.6,72.7,9.4,72.7,9.2z
			 M78.3,6.4c-1-0.1-2,0.6-2.2,1.6h4.3C80.4,7.3,79.8,6.4,78.3,6.4z"/>
		<path id="Path_91" class="st0" d="M0.5,34.3l2-2.9c1.2,1.2,2.9,1.9,4.7,1.9c1.3,0,2-0.4,2-1.2c0-1.9-8.2-0.3-8.2-5.9
			c0-2.4,2-4.6,5.8-4.6c2.1-0.1,4.2,0.7,5.9,2l-2,2.8c-1.2-1-2.7-1.5-4.2-1.5c-1.1,0-1.6,0.4-1.6,1c0,1.8,8.2,0.4,8.2,5.8
			c0,2.9-2.2,4.9-6,4.9C4.6,36.7,2.3,35.8,0.5,34.3z"/>
		<path id="Path_92" class="st0" d="M21.8,36.3v-6.1c0-1.3-0.7-1.7-1.7-1.7c-0.8,0-1.5,0.4-2,1v6.8h-3.4V21.8H18v5.3
			c0.9-1,2.3-1.6,3.6-1.5c2.4,0,3.5,1.3,3.5,3.3v7.5L21.8,36.3z"/>
		<path id="Path_93" class="st0" d="M27.3,22.9c0-1.1,0.9-1.9,1.9-1.9s1.9,0.9,1.9,1.9c0,1.1-0.9,1.9-1.9,1.9S27.3,24,27.3,22.9z
			 M27.6,36.3V25.8h3.4v10.5H27.6z"/>
		<path id="Path_94" class="st0" d="M36.7,35.1v5.2h-3.4V25.8h3.4V27c0.8-0.9,1.9-1.5,3.1-1.5c2.6,0,4.6,2,4.6,5.5
			c0,3.6-2,5.5-4.6,5.5C38.6,36.6,37.5,36,36.7,35.1z M41,31c0.1-1.3-0.8-2.4-2.1-2.5c-0.1,0-0.1,0-0.2,0c-0.8,0-1.5,0.4-2,1v3.2
			c0.5,0.6,1.2,0.9,2,1c1.3,0,2.3-1.1,2.3-2.3C41,31.2,41,31.1,41,31z"/>
		<path id="Path_95" class="st0" d="M49.5,35.1v5.2h-3.4V25.8h3.4V27c0.8-0.9,1.9-1.5,3.1-1.5c2.6,0,4.6,2,4.6,5.5
			c0,3.6-2,5.5-4.6,5.5C51.4,36.6,50.3,36,49.5,35.1z M53.8,31c0.1-1.3-0.8-2.4-2.1-2.5c-0.1,0-0.1,0-0.2,0c-0.8,0-1.5,0.4-2,1v3.2
			c0.5,0.6,1.2,0.9,2,1c1.3,0,2.3-1.1,2.3-2.3C53.9,31.2,53.8,31.1,53.8,31z"/>
		<path id="Path_96" class="st0" d="M58.8,22.9c0-1.1,0.9-1.9,1.9-1.9s1.9,0.9,1.9,1.9c0,1.1-0.9,1.9-1.9,1.9S58.8,24,58.8,22.9z
			 M59,36.3V25.8h3.4v10.5H59z"/>
		<path id="Path_97" class="st0" d="M71.9,36.3v-6.1c0.1-0.8-0.4-1.6-1.3-1.7c-0.2,0-0.3,0-0.5,0c-0.8,0-1.6,0.4-2,1v6.8h-3.4V25.8
			h3.4v1.3c0.9-1,2.3-1.6,3.7-1.5c1.7-0.2,3.2,1,3.4,2.7c0,0.2,0,0.4,0,0.6v7.4H71.9z"/>
		<path id="Path_98" class="st0" d="M77.4,39l1.5-2.3c0.9,0.8,2,1.3,3.2,1.2c1.3,0.2,2.5-0.8,2.7-2.1c0-0.1,0-0.2,0-0.4v-0.8
			c-0.7,1-1.9,1.5-3.1,1.5c-2.6,0-4.6-1.8-4.6-5.3c0-3.5,2-5.3,4.6-5.3c1.2,0,2.4,0.5,3.1,1.5v-1.2h3.4v9.6c0,4.3-3.4,5.2-6,5.2
			C80.4,40.6,78.7,40.1,77.4,39z M84.7,32.2v-2.8c-0.5-0.6-1.2-0.9-2-0.9c-1.3,0-2.3,1-2.3,2.3c0,1.3,1,2.3,2.3,2.3
			C83.5,33.2,84.2,32.8,84.7,32.2z"/>
	</g>
</g>
</svg>
